\contentsline {chapter}{\numberline {1}Rola harmonii w kompozycji}{9}{chapter.1}
\contentsline {chapter}{\numberline {2}Dob\IeC {\'o}r technologii i rozpatrywanych danych}{11}{chapter.2}
\contentsline {section}{\numberline {2.1}MIDI i **kern}{11}{section.2.1}
\contentsline {subsection}{\numberline {2.1.1}Detekcja tonacji i wyekstrahowanie melodii}{11}{subsection.2.1.1}
\contentsline {subsection}{\numberline {2.1.2}Wyekstrahowanie melodii}{11}{subsection.2.1.2}
\contentsline {section}{\numberline {2.2}Python i biblioteka keras}{11}{section.2.2}
\contentsline {chapter}{\numberline {3}Machine learning a harmonizacja, czyli Sieci neuronowe w s\IeC {\l }u\IeC {\.z}bie kompozycji xD}{13}{chapter.3}
\contentsline {section}{\numberline {3.1}Rekurencyjne sieci LSTM}{13}{section.3.1}
\contentsline {subsection}{\numberline {3.1.1}Problem zanikaj\IeC {\k a}cych gradient\IeC {\'o}w}{13}{subsection.3.1.1}
\contentsline {chapter}{\numberline {4}Model harmonizuj\IeC {\k a}cy zadan\IeC {\k a} sekwencj\IeC {\k e} melodyczn\IeC {\k a}}{15}{chapter.4}
\contentsline {section}{\numberline {4.1}Detekcja punkt\IeC {\'o}w zmienno\IeC {\'s}ci harmonicznej w czasie}{15}{section.4.1}
\contentsline {section}{\numberline {4.2}Model zmienno\IeC {\'s}ci melodyczno-harmonicznej}{16}{section.4.2}
\contentsline {subsection}{\numberline {4.2.1}Analiza zmienno\IeC {\'s}ci melodii xD w\nobreakspace {}celu wyodr\IeC {\k e}bnienia cech}{16}{subsection.4.2.1}
\contentsline {subsection}{\numberline {4.2.2}Tworzenie klasyfikatora <cecha, warto\IeC {\'s}\IeC {\'c}> - np. <melodia\_opadaj\IeC {\k a}ca, A-dur>}{16}{subsection.4.2.2}
\contentsline {section}{\numberline {4.3}Trening sieci w oparciu o model melodyczno-harmoniczny}{16}{section.4.3}
\contentsline {section}{\numberline {4.4}Dodanie wej\IeC {\'s}ciowej sekwencji d\IeC {\'z}wi\IeC {\k e}k\IeC {\'o}w cech harmonicznych}{16}{section.4.4}
\contentsline {section}{\numberline {4.5}Wzmianka o utrzymaniu nastroju dize\IeC {\l }a muzycznego}{16}{section.4.5}
\contentsline {chapter}{\numberline {5}Klasyfikacja wynik\IeC {\'o}w}{17}{chapter.5}
\contentsline {subsection}{\numberline {5.0.1}Ocena zgodno\IeC {\'s}ci sharmonizownia melodii wzgl\IeC {\k e}dem poszczeg\IeC {\'o}lnych epok ??}{17}{subsection.5.0.1}
